{ "currentPage" : 1,
  "data" : [{% for instance in instances %}
	{
		"id": "{{ instance.id }}",
		"db_name": "{{ instance.db_name }}"
	}{% if not forloop.last %},{% endif%}
{% endfor %}],
  "filter" : {  },
  "perPage" : 5,
  "posted" : [  ],
  "sort" : [  ],
  "totalRows" : {{ count }}
}